^C:\BUSCAMINAS\BUSCAMINAS\DEBUG\APLICACION.OBJ|C:\BUSCAMINAS\BUSCAMINAS\DEBUG\CAMPOMINAS.OBJ|C:\BUSCAMINAS\BUSCAMINAS\DEBUG\CASILLA.OBJ|C:\BUSCAMINAS\BUSCAMINAS\DEBUG\COORDENADA.OBJ|C:\BUSCAMINAS\BUSCAMINAS\DEBUG\MAIN.OBJ|C:\BUSCAMINAS\BUSCAMINAS\DEBUG\MINA.OBJ
C:\BUSCAMINAS\DEBUG\BUSCAMINAS.ILK
C:\BUSCAMINAS\DEBUG\BUSCAMINAS.EXE
C:\BUSCAMINAS\DEBUG\BUSCAMINAS.PDB
